{
  "$schema": "http://bigcontent.io/cms/schema/v1/schema#",
  "id": "https://bitbucket.org/tempur/amplience/raw/master/dist/renders/roundelLink/package/roundellink_v2.json",
  "title": "Roundel link",
  "description": "Roundel link",
  "allOf": [
    { "$ref": "http://bigcontent.io/cms/schema/v1/core#/definitions/content" }
  ],
  "propertyOrder": [
    "image",
    "strapline",
    "cta",
    "content"
  ],
  "type": "object",
  "properties": {
    "image": {
      "$ref": "https://bitbucket.org/tempur/amplience/raw/master/dist/renders/image/package/image.json",
      "title": "Link image",
      "description": "The image next to the link",
      "type": "object"
    },
    "cta": {
      "type": "object",
      "title": "Call to action",
      "description": "",
      "$ref": "https://bitbucket.org/tempur/amplience/raw/master/dist/renders/customLink/package/customlink.json"
    },
    "strapline": {
      "title": "Strapline",
      "description": "Text below the link",
      "type": "string",
      "format": "text",
      "maxLength": 256
    },
    "content": {
      "$ref": "https://bitbucket.org/tempur/amplience/raw/master/dist/renders/pdpRoundelLinkContent/package/pdproundellinkcontent.json",
      "title": "Roundel link content",
      "description": "The content displayed below the roundel link",
      "type": "object"
    }
  }
}
