{
  "$schema": "http://bigcontent.io/cms/schema/v1/schema#",
  "id": "https://bitbucket.org/tempur/amplience/raw/master/dist/renders/video/package/video.json",
  "title": "Video Accelerator",
  "description": "Video Accelerator",
  "allOf": [
    {
      "$ref": "http://bigcontent.io/cms/schema/v1/core#/definitions/content"
    }
  ],
  "propertyOrder": [ "video" ],
  "type": "object",
  "properties": {
    "video": {
      "title": "video",
      "type": "object",
      "anyOf": [
        {
          "$ref": "http://bigcontent.io/cms/schema/v1/core#/definitions/video-link"
        }
      ]
    }
  }
}