{
    "$schema": "http://bigcontent.io/cms/schema/v1/schema#",
    "id": "https://bitbucket.org/tempur/amplience/raw/master/dist/renders/contentTab/package/contenttab.json",
    "title": "Content tab",
    "description": "Content tab",
    "allOf": [
        { "$ref": "http://bigcontent.io/cms/schema/v1/core#/definitions/content" }
    ],
    "propertyOrder": [
        "tabName",
        "tabColor",
        "tabContent",
        "textPosition",
        "image",
        "isImageContentOnly",
        "isActive"
    ],
    "type": "object",
    "properties": {
        "tabName": {
            "type": "string",
            "minLength": 0,
            "maxLength": 255,
            "title": "Title of tab",
            "description": "add tab title"
        },
        "tabColor": {
            "title": "Tab background color",
            "description": "Color (hex color code e.g. #53565a)",
            "type": "string",
            "format": "text",
            "maxLength": 7
        },
        "tabContent": {
            "title": "Tab Content",
            "description": "add tab content",
            "type": "object",
            "allOf": [
                {
                    "$ref": "https://bitbucket.org/tempur/amplience/raw/master/dist/renders/bannerContent/package/bannercontent.json"
                }
            ]
        },
        "textPosition": {
            "type": "string",
            "minLength": 0,
            "maxLength": 255,
            "title": "Tab text position",
            "description": "Tab text position - left or right (default: left)"
        },
        "image": {
          "$ref": "https://dev-solutions.s3.amazonaws.com/DynamicContentTypes/Accelerators/image.json",
          "title": "Tab image",
          "description": "Tab image",
          "type": "object"
        },
        "isActive": {
            "type": "boolean",
            "title": "Show tab content on page load",
            "description": "Make default"
        },
        "isImageContentOnly": {
            "type": "boolean",
            "title": "Is image content only",
            "description": "Tab content without text"
        }
    }
}
