{
  "$schema": "http://bigcontent.io/cms/schema/v1/schema#",
  "id": "https://bitbucket.org/tempur/amplience/raw/master/dist/renders/footerBanner/package/footerbanner_v2.json",
  "title": "Footer banner",
  "description": "Footer banner",
  "allOf": [
    { "$ref": "http://bigcontent.io/cms/schema/v1/core#/definitions/content" }
  ],
  "propertyOrder": [
    "image",
    "header",
    "subheader",
    "button"
  ],
  "type": "object",
  "properties": {
    "image": {
      "type": "object",
      "title": "Image",
      "description": "",
      "allOf": [
        {
          "$ref": "https://bitbucket.org/tempur/amplience/raw/master/dist/renders/image/package/image.json"
        }
      ]
    },
    "header": {
      "type": "string",
      "minLength": 0,
      "maxLength": 255,
      "title": "Header",
      "description": "add header"
    },
    "subheader": {
      "type": "string",
      "minLength": 0,
      "maxLength": 255,
      "title": "Subheader",
      "description": "add subheader"
    },
    "button": {
      "title": "Button",
      "description": "add button",
      "type": "object",
      "allOf": [
        {
          "$ref": "https://bitbucket.org/tempur/amplience/raw/master/dist/renders/customLink/package/customlink.json"
        }
      ]
    }
  }
}
