{
  "$schema": "http://bigcontent.io/cms/schema/v1/schema#",
  "id": "https://bitbucket.org/tempur/amplience/raw/master/dist/renders/twoColumnBanner/package/twocolumnbanner.json",
  "title": "Two column banner",
  "description": "Two column banner",
  "allOf": [
    { "$ref": "http://bigcontent.io/cms/schema/v1/core#/definitions/content" }
  ],
  "propertyOrder": [
    "columns",
    "topCurve",
    "mobileTopCurve",
    "bottomImage"
  ],
  "type": "object",
  "properties": {
    "columns": {
      "type": "array",
      "items": {
        "allOf": [
          {
            "$ref": "http://bigcontent.io/cms/schema/v1/core#/definitions/content-link"
          },
          {
            "properties": {
              "contentType": {
                "enum": [
                  "https://bitbucket.org/tempur/amplience/raw/master/dist/renders/bannerColumn/package/bannercolumn.json"
                ]
              }
            }
          }
        ]
      },
      "minItems": 1,
      "maxItems": 2,
      "title": "Banner column",
      "description": "Select or create a banner column"
    },
    "topCurve": {
      "type": "object",
      "allOf": [
        {
          "$ref": "http://bigcontent.io/cms/schema/v1/core#/definitions/content-link"
        },
        {
          "properties": {
            "contentType": {
              "title": "image",
              "enum": [
                "https://dev-solutions.s3.amazonaws.com/DynamicContentTypes/Accelerators/image.json"
              ]
            }
          }
        }
      ],
      "title": "Top curve image",
      "description": "Select or create an image content"
    },
    "mobileTopCurve": {
      "type": "object",
      "allOf": [
        {
          "$ref": "http://bigcontent.io/cms/schema/v1/core#/definitions/content-link"
        },
        {
          "properties": {
            "contentType": {
              "title": "image",
              "enum": [
                "https://dev-solutions.s3.amazonaws.com/DynamicContentTypes/Accelerators/image.json"
              ]
            }
          }
        }
      ],
      "title": "Top curve image on mobile",
      "description": "Select or create an image content"
    },
    "bottomImage": {
      "type": "object",
      "allOf": [
        {
          "$ref": "http://bigcontent.io/cms/schema/v1/core#/definitions/content-link"
        },
        {
          "properties": {
            "contentType": {
              "title": "image",
              "enum": [
                "https://dev-solutions.s3.amazonaws.com/DynamicContentTypes/Accelerators/image.json"
              ]
            }
          }
        }
      ],
      "title": "Banner bottom Image",
      "description": "Select or create an image content"
    }
  }
}
