{
  "$schema": "http://bigcontent.io/cms/schema/v1/schema#",
  "id": "https://bitbucket.org/tempur/amplience/raw/master/dist/renders/pdpRoundelLinkContent/package/pdproundellinkcontent_v2.json",
  "title": "Roundel link content",
  "description": "Roundel link content",
  "allOf": [
    { "$ref": "http://bigcontent.io/cms/schema/v1/core#/definitions/content" }
  ],
  "propertyOrder": [
    "header",
    "subheader",
    "button",
    "contentImages"
  ],
  "type": "object",
  "properties": {
    "header": {
      "type": "string",
      "minLength": 0,
      "maxLength": 255,
      "title": "Header",
      "description": "add header"
    },
    "subheader": {
      "type": "string",
      "minLength": 0,
      "maxLength": 255,
      "title": "Subheader",
      "description": "add subheader"
    },
    "button": {
      "title": "Button",
      "description": "add button",
      "type": "object",
      "allOf": [
        {
          "$ref": "https://bitbucket.org/tempur/amplience/raw/master/dist/renders/customLink/package/customlink.json"
        }
      ]
    },
    "contentImages": {
      "type": "array",
      "items": {
        "allOf": [
          {
            "$ref": "http://bigcontent.io/cms/schema/v1/core#/definitions/content-link"
          },
          {
            "properties": {
              "contentType": {
                "title": "image",
                "enum": [
                  "https://bitbucket.org/tempur/amplience/raw/master/dist/renders/image/package/image.json"
                ]
              }
            }
          }
        ]
      },
      "minItems": 1,
      "maxItems": 4,
      "title": "Roundel link content image",
      "description": "Select or create an image content"
    },
    "showContent": {
      "type": "boolean",
      "title": "Show on page load",
      "description": "Make default"
    }
  }
}
