{
  "$schema": "http://bigcontent.io/cms/schema/v1/schema#",
  "id": "https://bitbucket.org/tempur/amplience/raw/master/dist/renders/coolTouchColumn/package/cooltouchcolumn_v2.json",
  "title": "Cool touch column",
  "description": "Cool touch column",
  "allOf": [
    { "$ref": "http://bigcontent.io/cms/schema/v1/core#/definitions/content" }
  ],
  "propertyOrder": [
    "background",
    "roundelLink",
    "header",
    "subheader",
    "stockistText",
    "stockistLogo",
    "link"
  ],
  "type": "object",
  "properties": {
    "background": {
      "type": "object",
      "allOf": [
        {
          "$ref": "http://bigcontent.io/cms/schema/v1/core#/definitions/content-link"
        },
        {
          "properties": {
            "contentType": {
              "title": "image",
              "enum": [
                "https://bitbucket.org/tempur/amplience/raw/master/dist/renders/image/package/image.json"
              ]
            }
          }
        }
      ],
      "title": "Column top curve",
      "description": "Select or create an image content"
    },
    "roundelLink": {
      "type": "object",
      "allOf": [
        {
          "$ref": "http://bigcontent.io/cms/schema/v1/core#/definitions/content-link"
        },
        {
          "properties": {
            "contentType": {
              "title": "image",
              "enum": [
                "https://bitbucket.org/tempur/amplience/raw/master/dist/renders/roundelLink/package/roundellink.json"
              ]
            }
          }
        }
      ],
      "title": "Roundel Link",
      "description": "add Link"
    },
    "header": {
      "type": "string",
      "minLength": 0,
      "maxLength": 255,
      "title": "Header",
      "description": "add header"
    },
    "subheader": {
      "type": "string",
      "minLength": 0,
      "maxLength": 500,
      "title": "Subheader",
      "description": "add subheader"
    },
    "stockistText": {
      "type": "string",
      "minLength": 0,
      "maxLength": 255,
      "title": "Stockist Text",
      "description": "add text"
    },
    "stockistLogo": {
      "title": "Stockist logo",
      "description": "add image",
      "type": "object",
      "allOf": [
        {
          "$ref": "https://bitbucket.org/tempur/amplience/raw/master/dist/renders/image/package/image.json"
        }
      ]
    },
    "link": {
      "title": "Link",
      "description": "add Link",
      "type": "object",
      "allOf": [
        {
          "$ref": "https://bitbucket.org/tempur/amplience/raw/master/dist/renders/customLink/package/customlink.json"
        }
      ]
    }
  }
}
