{
  "$schema": "http://bigcontent.io/cms/schema/v1/schema#",
  "id": "https://bitbucket.org/tempur/amplience/raw/master/dist/renders/imageLayers/package/imagelayers_v2.json",
  "title": "Image layers",
  "description": "Configure back and front images",
  "allOf": [
    { "$ref": "http://bigcontent.io/cms/schema/v1/core#/definitions/content" }
  ],
  "propertyOrder": [
    "imageLayer0",
    "imageLayer1",
    "anchor",
    "imageLeftPosition",
    "imageTopPosition",
    "imageRightPosition",
    "imageBottomPosition"
  ],
  "type": "object",
  "properties": {
    "imageLayer0": {
      "type": "object",
      "allOf": [
        {
          "$ref": "https://bitbucket.org/tempur/amplience/raw/master/dist/renders/image/package/image.json"
        }
      ],
      "title": "Back image Layer",
      "description": "insert an image"
    },
    "imageLayer1": {
      "type": "object",
      "allOf": [
        {
          "$ref": "https://bitbucket.org/tempur/amplience/raw/master/dist/renders/image/package/image.json"
        }
      ],
      "title": "Front image layer",
      "description": "insert an image"
    },
    "anchor": {
      "type": "string",
      "minLength": 0,
      "maxLength": 2,
      "title": "Anchor",
      "description": "e.g. TL"
    },
    "imageLeftPosition": {
      "type": "string",
      "minLength": 1,
      "maxLength": 5,
      "title": "Second image layer position from the left",
      "description": "Enter a percentage value (without a '%' sign)"
    },
    "imageTopPosition": {
      "type": "string",
      "minLength": 1,
      "maxLength": 5,
      "title": "Second image layer position from the top",
      "description": "Enter a percentage value (without a '%' sign)"
    },
    "imageRightPosition": {
      "type": "string",
      "minLength": 1,
      "maxLength": 5,
      "title": "Second image layer position from the right",
      "description": "Enter a percentage value (without a '%' sign)"
    },
    "imageBottomPosition": {
      "type": "string",
      "minLength": 1,
      "maxLength": 5,
      "title": "Second image layer position from the bottom",
      "description": "Enter a percentage value (without a '%' sign)"
    }
  }
}
