{
    "$schema": "http://bigcontent.io/cms/schema/v1/schema#",
    "id": "https://bitbucket.org/tempur/amplience/raw/master/dist/renders/coolTouchBanner/package/cooltouchbanner.json",
    "title": "Cool touch banner",
    "description": "Cool touch banner",
    "allOf": [
        { "$ref": "http://bigcontent.io/cms/schema/v1/core#/definitions/content" }
    ],
    "propertyOrder": [
      "columns",
      "categoryText",
      "background"
    ],
    "type": "object",
  "properties": {
    "background": {
      "type": "object",
      "allOf": [
        {
          "$ref": "http://bigcontent.io/cms/schema/v1/core#/definitions/content-link"
        },
        {
          "properties": {
            "contentType": {
              "title": "image",
              "enum": [
                "https://dev-solutions.s3.amazonaws.com/DynamicContentTypes/Accelerators/image.json"
              ]
            }
          }
        }
      ],
      "title": "Banner top curve",
      "description": "Select or create an image content"
    },
    "columns": {
      "type": "array",
      "items": {
        "allOf": [
          {
            "$ref": "http://bigcontent.io/cms/schema/v1/core#/definitions/content-link"
          },
          {
            "properties": {
              "contentType": {
                "title": "column",
                "enum": [
                  "https://bitbucket.org/tempur/amplience/raw/master/dist/renders/coolTouchColumn/package/cooltouchcolumn.json"
                ]
              }
            }
          }
        ]
      },
      "maxItems": 5,
      "title": "Cool touch column",
      "description": "Select or create an column content"
    },
    "categoryText": {
      "type": "object",
      "allOf": [
        {
          "$ref": "http://bigcontent.io/cms/schema/v1/core#/definitions/content-link"
        },
        {
          "properties": {
            "contentType": {
              "enum": [
                "https://bitbucket.org/tempur/amplience/raw/master/dist/renders/categoryTextBanner/package/categorytextbanner.json"
              ]
            }
          }
        }
      ],
      "title": "Category Text Banner",
      "description": "add content"
    }
  }
}
