{
  "$schema": "http://bigcontent.io/cms/schema/v1/schema#",
  "id": "https://bitbucket.org/tempur/amplience/raw/master/dist/renders/productCardList/package/productcardlist.json",
  "title": "Product card list",
  "description": "Product card list",
  "allOf": [
    { "$ref": "http://bigcontent.io/cms/schema/v1/core#/definitions/content" }
  ],
  "propertyOrder": [
    "cards"
  ],
  "type": "object",
  "properties": {
    "cards": {
      "type": "array",
      "items": {
        "allOf": [
          {
            "$ref": "http://bigcontent.io/cms/schema/v1/core#/definitions/content-link"
          },
          {
            "properties": {
              "contentType": {
                "enum": [
                  "https://bitbucket.org/tempur/amplience/raw/master/dist/renders/productCard/package/productcard.json"
                ]
              }
            }
          }
        ]
      },
      "minItems": 1,
      "maxItems": 19,
      "title": "Product Cards",
      "description": "Select or create a card"
    }
  }
}
